…
``` r
library(tidyverse)
library(readxl)
trashwheel <- read_excel("data/Trash-Wheel-Collection-Totals-7-2020-2.xlsx", sheet = 1, range =  cell_cols("A:N")) %>% 
  janitor::clean_names() %>% 
  rename(dumpster_number = dumpster) %>% 
  filter(!is.na(dumpster_number)) %>% 
  filter(!(month == "Grand Total")) %>% 
  mutate(sports_balls = as.integer(round(sports_balls, digits = 0)))%>% 
  mutate(dumpster_number = as.character(dumpster_number))%>% 
  add_column(dataset = "Mr. Trash Wheel")
trashwheel
```

    ## # A tibble: 453 × 15
    ##    dumpster_nu…¹ month  year date                weigh…² volum…³ plast…⁴ polys…⁵
    ##    <chr>         <chr> <dbl> <dttm>                <dbl>   <dbl>   <dbl>   <dbl>
    ##  1 1             May    2014 2014-05-16 00:00:00    4.31      18    1450    1820
    ##  2 2             May    2014 2014-05-16 00:00:00    2.74      13    1120    1030
    ##  3 3             May    2014 2014-05-16 00:00:00    3.45      15    2450    3100
    ##  4 4             May    2014 2014-05-17 00:00:00    3.1       15    2380    2730
    ##  5 5             May    2014 2014-05-17 00:00:00    4.06      18     980     870
    ##  6 6             May    2014 2014-05-20 00:00:00    2.71      13    1430    2140
    ##  7 7             May    2014 2014-05-21 00:00:00    1.91       8     910    1090
    ##  8 8             May    2014 2014-05-28 00:00:00    3.7       16    3580    4310
    ##  9 9             June   2014 2014-06-05 00:00:00    2.52      14    2400    2790
    ## 10 10            June   2014 2014-06-11 00:00:00    3.76      18    1340    1730
    ## # … with 443 more rows, 7 more variables: cigarette_butts <dbl>,
    ## #   glass_bottles <dbl>, grocery_bags <dbl>, chip_bags <dbl>,
    ## #   sports_balls <int>, homes_powered <dbl>, dataset <chr>, and abbreviated
    ## #   variable names ¹​dumpster_number, ²​weight_tons, ³​volume_cubic_yards,
    ## #   ⁴​plastic_bottles, ⁵​polystyrene
…
``` r
proftrashwheel <- read_excel("data/Trash-Wheel-Collection-Totals-7-2020-2.xlsx", sheet = 2, range =  cell_cols("A:N")) %>% 
  janitor::clean_names() %>% 
  rename(dumpster_number = dumpster) %>% 
  filter(!is.na(dumpster_number)) %>% 
  mutate(sports_balls = as.integer(round(sports_balls, digits = 0)))%>% 
  mutate(dumpster_number = as.character(dumpster_number))%>% 
  add_column(dataset =  "Professor Trash Wheel")
proftrashwheel
```

    ## # A tibble: 71 × 15
    ##    dumpster_nu…¹ month  year date                weigh…² volum…³ plast…⁴ polys…⁵
    ##    <chr>         <chr> <dbl> <dttm>                <dbl>   <dbl>   <dbl>   <dbl>
    ##  1 1             Janu…  2017 2017-01-02 00:00:00    1.79      15    1950    6080
    ##  2 2             Janu…  2017 2017-01-30 00:00:00    1.58      15    9540   11230
    ##  3 3             Febr…  2017 2017-02-26 00:00:00    2.32      18    8350    9210
    ##  4 4             Febr…  2017 2017-02-26 00:00:00    3.72      15    8590    1030
    ##  5 5             Febr…  2017 2017-02-28 00:00:00    1.45      15    7830    9950
    ##  6 6             March  2017 2017-03-30 00:00:00    1.71      15    8210   10340
    ##  7 7             April  2017 2017-04-01 00:00:00    1.82      15    9830   11020
    ##  8 8             April  2017 2017-04-20 00:00:00    2.37      15    9240    8760
    ##  9 9             May    2017 2017-05-10 00:00:00    2.64      15    9540    8810
    ## 10 10            May    2017 2017-05-26 00:00:00    2.78      15    8230    7800
    ## # … with 61 more rows, 7 more variables: cigarette_butts <dbl>,
    ## #   glass_bottles <dbl>, grocery_bags <dbl>, chip_bags <dbl>,
    ## #   sports_balls <int>, homes_powered <dbl>, dataset <chr>, and abbreviated
    ## #   variable names ¹​dumpster_number, ²​weight_tons, ³​volume_cubic_yards,
    ## #   ⁴​plastic_bottles, ⁵​polystyrene

``` r
combined_data = 
  full_join(proftrashwheel, trashwheel, by = colnames(trashwheel)[1:15])
combined_data
```

    ## # A tibble: 524 × 15
    ##    dumpster_nu…¹ month  year date                weigh…² volum…³ plast…⁴ polys…⁵
    ##    <chr>         <chr> <dbl> <dttm>                <dbl>   <dbl>   <dbl>   <dbl>
    ##  1 1             Janu…  2017 2017-01-02 00:00:00    1.79      15    1950    6080
    ##  2 2             Janu…  2017 2017-01-30 00:00:00    1.58      15    9540   11230
    ##  3 3             Febr…  2017 2017-02-26 00:00:00    2.32      18    8350    9210
    ##  4 4             Febr…  2017 2017-02-26 00:00:00    3.72      15    8590    1030
    ##  5 5             Febr…  2017 2017-02-28 00:00:00    1.45      15    7830    9950
    ##  6 6             March  2017 2017-03-30 00:00:00    1.71      15    8210   10340
    ##  7 7             April  2017 2017-04-01 00:00:00    1.82      15    9830   11020
    ##  8 8             April  2017 2017-04-20 00:00:00    2.37      15    9240    8760
    ##  9 9             May    2017 2017-05-10 00:00:00    2.64      15    9540    8810
    ## 10 10            May    2017 2017-05-26 00:00:00    2.78      15    8230    7800
    ## # … with 514 more rows, 7 more variables: cigarette_butts <dbl>,
    ## #   glass_bottles <dbl>, grocery_bags <dbl>, chip_bags <dbl>,
    ## #   sports_balls <int>, homes_powered <dbl>, dataset <chr>, and abbreviated
    ## #   variable names ¹​dumpster_number, ²​weight_tons, ³​volume_cubic_yards,
    ## #   ⁴​plastic_bottles, ⁵​polystyrene
…
    ## Rows: 822 Columns: 9
    ## ── Column specification ────────────────────────────────────────────────────────
    ## Delimiter: ","
    ## dbl  (8): prez_gop, gov_gop, sen_gop, rep_gop, prez_dem, gov_dem, sen_dem, r...
    ## date (1): mon
    ## 
    ## ℹ Use `spec()` to retrieve the full column specification for this data.
    ## ℹ Specify the column types or set `show_col_types = FALSE` to quiet this message.

``` r
pols
```

    ## # A tibble: 822 × 9
    ##     year month gov_gop sen_gop rep_gop gov_dem sen_dem rep_dem president
    ##    <int> <chr>   <dbl>   <dbl>   <dbl>   <dbl>   <dbl>   <dbl> <chr>    
    ##  1  1947 Jan        23      51     253      23      45     198 dem      
    ##  2  1947 Feb        23      51     253      23      45     198 dem      
    ##  3  1947 Mar        23      51     253      23      45     198 dem      
    ##  4  1947 Apr        23      51     253      23      45     198 dem      
    ##  5  1947 May        23      51     253      23      45     198 dem      
    ##  6  1947 Jun        23      51     253      23      45     198 dem      
    ##  7  1947 Jul        23      51     253      23      45     198 dem      
    ##  8  1947 Aug        23      51     253      23      45     198 dem      
    ##  9  1947 Sep        23      51     253      23      45     198 dem      
    ## 10  1947 Oct        23      51     253      23      45     198 dem      
    ## # … with 812 more rows
…
    ## Rows: 787 Columns: 2
    ## ── Column specification ────────────────────────────────────────────────────────
    ## Delimiter: ","
    ## chr (1): date
    ## dbl (1): close
    ## 
    ## ℹ Use `spec()` to retrieve the full column specification for this data.
    ## ℹ Specify the column types or set `show_col_types = FALSE` to quiet this message.

``` r
snp
```

    ## # A tibble: 787 × 4
    ##     year month   day close
    ##    <dbl> <chr> <int> <dbl>
    ##  1  1950 Apr       3  18.0
    ##  2  1950 Aug       1  18.4
    ##  3  1950 Dec       1  20.4
    ##  4  1950 Feb       1  17.2
    ##  5  1950 Jan       3  17.0
    ##  6  1950 Jul       3  17.8
    ##  7  1950 Jun       1  17.7
    ##  8  1950 Mar       1  17.3
    ##  9  1950 May       1  18.8
    ## 10  1950 Nov       1  19.5
    ## # … with 777 more rows
…
    ## Rows: 68 Columns: 13
    ## ── Column specification ────────────────────────────────────────────────────────
    ## Delimiter: ","
    ## dbl (13): Year, Jan, Feb, Mar, Apr, May, Jun, Jul, Aug, Sep, Oct, Nov, Dec
    ## 
    ## ℹ Use `spec()` to retrieve the full column specification for this data.
    ## ℹ Specify the column types or set `show_col_types = FALSE` to quiet this message.

``` r
unemployment
```

    ## # A tibble: 816 × 3
    ##     year month unemployment_rate
    ##    <dbl> <chr>             <dbl>
    ##  1  1948 Jan                 3.4
    ##  2  1948 Feb                 3.8
    ##  3  1948 Mar                 4  
    ##  4  1948 Apr                 3.9
    ##  5  1948 May                 3.5
    ##  6  1948 Jun                 3.6
    ##  7  1948 Jul                 3.6
    ##  8  1948 Aug                 3.9
    ##  9  1948 Sep                 3.8
    ## 10  1948 Oct                 3.7
    ## # … with 806 more rows

``` r
combineddataset= left_join(pols, snp, by = c("month","year"))
combineddataset
```

    ## # A tibble: 822 × 11
    ##     year month gov_gop sen_gop rep_gop gov_dem sen_dem rep_dem president   day
    ##    <dbl> <chr>   <dbl>   <dbl>   <dbl>   <dbl>   <dbl>   <dbl> <chr>     <int>
    ##  1  1947 Jan        23      51     253      23      45     198 dem          NA
    ##  2  1947 Feb        23      51     253      23      45     198 dem          NA
    ##  3  1947 Mar        23      51     253      23      45     198 dem          NA
    ##  4  1947 Apr        23      51     253      23      45     198 dem          NA
    ##  5  1947 May        23      51     253      23      45     198 dem          NA
    ##  6  1947 Jun        23      51     253      23      45     198 dem          NA
    ##  7  1947 Jul        23      51     253      23      45     198 dem          NA
    ##  8  1947 Aug        23      51     253      23      45     198 dem          NA
    ##  9  1947 Sep        23      51     253      23      45     198 dem          NA
    ## 10  1947 Oct        23      51     253      23      45     198 dem          NA
    ## # … with 812 more rows, and 1 more variable: close <dbl>

``` r
combineddataset_final=left_join(combineddataset,unemployment, by = c("month", "year"))
combineddataset_final
```

    ## # A tibble: 822 × 12
    ##     year month gov_gop sen_gop rep_gop gov_dem sen_dem rep_dem president   day
    ##    <dbl> <chr>   <dbl>   <dbl>   <dbl>   <dbl>   <dbl>   <dbl> <chr>     <int>
    ##  1  1947 Jan        23      51     253      23      45     198 dem          NA
    ##  2  1947 Feb        23      51     253      23      45     198 dem          NA
    ##  3  1947 Mar        23      51     253      23      45     198 dem          NA
    ##  4  1947 Apr        23      51     253      23      45     198 dem          NA
    ##  5  1947 May        23      51     253      23      45     198 dem          NA
    ##  6  1947 Jun        23      51     253      23      45     198 dem          NA
    ##  7  1947 Jul        23      51     253      23      45     198 dem          NA
    ##  8  1947 Aug        23      51     253      23      45     198 dem          NA
    ##  9  1947 Sep        23      51     253      23      45     198 dem          NA
    ## 10  1947 Oct        23      51     253      23      45     198 dem          NA
    ## # … with 812 more rows, and 2 more variables: close <dbl>,
    ## #   unemployment_rate <dbl>
…
